{
  "swagger": "2.0",
  "info": {
    "description": "This is a spark service for displaying banking information ",
    "version": "1.0.0",
    "title": "Bank accounts",
    "contact": {
      "email": "pavlencoigoralex@gmail.com"
    },
    "license": {
      "name": "Apache 2.0",
      "url": "http://www.apache.org/licenses/LICENSE-2.0.html"
    }
  },
  "tags": [
    {
      "name": "accounts",
      "description": "Bank Accounts"
    }
  ],
  "paths": {
    "/accounts/{accountId}": {
      "get": {
        "tags": [
          "accounts"
        ],
        "summary": "Find account by ID",
        "description": "Returns a single account",
        "operationId": "getAccount",
        "produces": [
          "application/json"
        ],
        "parameters": [
          {
            "name": "accountId",
            "in": "path",
            "description": "ID of account to return",
            "required": true,
            "type": "string"
          }
        ],
        "responses": {
          "200": {
            "description": "successful operation",
            "schema": {
              "$ref": "#/definitions/ApiResponseSucces"
            }
          },
          "404": {
            "description": "unsuccessful operation, account not found",
            "schema": {
              "$ref": "#/definitions/ApiResponseError"
            }
          }
        }
      }
    }
  },
  "definitions": {
    "JsonElement": {
      "type": "object",
      "properties": {
        "id": {
          "type": "integer",
          "format": "int32"
        },
        "number": {
          "type": "string"
        },
        "balance": {
          "type": "integer",
          "format": "int64"
        },
        "currency": {
          "type": "string"
        },
        "timeOfTheLastOperation": {
          "type": "string"
        }
      }
    },
    "ApiResponseSucces": {
      "type": "object",
      "properties": {
        "status": {
          "type": "string"
        },
        "data": {
          "$ref": "#/definitions/JsonElement"
        }
      }
    },
    "ApiResponseError": {
      "type": "object",
      "properties": {
        "status": {
          "type": "string"
        },
        "message": {
          "type": "string"
        }
      }
    }
  }
}